<svg width="25" height="20" viewBox="0 0 25 20" fill="none" xmlns="http://www.w3.org/2000/svg">
<path d="M22.5 0H2.5C1.83913 0.00330441 1.20645 0.268155 0.740308 0.736638C0.274167 1.20512 0.0124918 1.83912 0.0125001 2.5L0 17.5C0.00197841 18.1624 0.266006 18.7972 0.734419 19.2656C1.20283 19.734 1.83757 19.998 2.5 20H22.5C23.1624 19.998 23.7972 19.734 24.2656 19.2656C24.734 18.7972 24.998 18.1624 25 17.5V2.5C24.998 1.83757 24.734 1.20283 24.2656 0.734419C23.7972 0.266006 23.1624 0.00197841 22.5 0ZM22.5 5L12.5 11.25L2.5 5V2.5L12.5 8.75L22.5 2.5V5Z" fill="#0091B3"/>
</svg>
