<svg width="100" height="100" viewBox="0 0 100 100" fill="none" xmlns="http://www.w3.org/2000/svg">
<path d="M89.3829 80.1375H82.5584L74.4859 18.7875V0.685547H71.1754V18.893L79.2199 80.137H72.8304V83.4475H79.4514V90.0685C79.4514 92.0328 80.0339 93.953 81.1252 95.5862C82.2165 97.2194 83.7675 98.4924 85.5823 99.244C87.397 99.9957 89.3939 100.192 91.3204 99.8092C93.247 99.426 95.0166 98.4801 96.4055 97.0912C97.7945 95.7022 98.7404 93.9326 99.1236 92.0061C99.5068 90.0796 99.3101 88.0827 98.5584 86.2679C97.8067 84.4532 96.5338 82.9021 94.9006 81.8108C93.2673 80.7195 91.3472 80.137 89.3829 80.137V80.1375ZM89.3829 96.6875C88.0734 96.6875 86.7933 96.2992 85.7045 95.5717C84.6157 94.8442 83.767 93.8101 83.2659 92.6003C82.7648 91.3905 82.6337 90.0592 82.8891 88.7748C83.1446 87.4905 83.7752 86.3108 84.7012 85.3848C85.6271 84.4588 86.8069 83.8282 88.0912 83.5728C89.3756 83.3173 90.7068 83.4484 91.9166 83.9495C93.1265 84.4507 94.1605 85.2993 94.8881 86.3881C95.6156 87.4769 96.0039 88.757 96.0039 90.0665C96.0042 90.9362 95.8331 91.7974 95.5005 92.6009C95.1679 93.4044 94.6802 94.1346 94.0654 94.7496C93.4505 95.3646 92.7205 95.8525 91.9171 96.1854C91.1137 96.5182 90.2526 96.6895 89.3829 96.6895V96.6875Z" fill="#0091B3"/>
<path d="M71.1755 0.685547H67.865V18.7855L59.7925 80.1356H52.968C51.0037 80.1356 49.0836 80.718 47.4504 81.8093C45.8171 82.9006 44.5442 84.4517 43.7925 86.2664C43.0408 88.0812 42.8441 90.0781 43.2273 92.0046C43.6105 93.9311 44.5564 95.7007 45.9454 97.0897C47.3343 98.4786 49.1039 99.4245 51.0305 99.8077C52.957 100.191 54.9539 99.9943 56.7686 99.2426C58.5834 98.4909 60.1345 97.2179 61.2257 95.5847C62.317 93.9515 62.8995 92.0313 62.8995 90.067V83.4481H69.5205V80.1376H63.131L71.1585 19.11L71.1755 0.685547ZM52.968 96.6896C51.6585 96.6896 50.3784 96.3012 49.2896 95.5737C48.2008 94.8462 47.3521 93.8121 46.851 92.6023C46.3499 91.3925 46.2188 90.0612 46.4742 88.7769C46.7297 87.4925 47.3603 86.3128 48.2862 85.3868C49.2122 84.4608 50.392 83.8302 51.6763 83.5748C52.9607 83.3193 54.2919 83.4504 55.5018 83.9515C56.7116 84.4527 57.7456 85.3013 58.4732 86.3901C59.2007 87.4789 59.589 88.759 59.589 90.0686C59.589 91.8245 58.8914 93.5086 57.6498 94.7503C56.4081 95.992 54.724 96.6896 52.968 96.6896Z" fill="#0091B3"/>
<path d="M36.4155 37.1V0L33.59 2.8255C31.33 5.073 29.5382 7.74648 28.3185 10.6912C27.0987 13.6358 26.4752 16.7932 26.484 19.9805V30.4805H33.106V37.1H29.7955V100H39.726V37.1H36.4155ZM29.7945 27.169V19.9805C29.7843 15.9678 30.9342 12.0377 33.106 8.6635V27.169H29.7955H29.7945ZM36.4155 96.6895H33.106V40.411H36.4165L36.4155 96.6895Z" fill="#0091B3"/>
<path d="M57.2714 21.626C56.6112 19.6404 56.2759 17.5611 56.2784 15.4685V0.685547L46.3469 8.13555V15.465C46.3495 17.5576 46.0142 19.6369 45.3539 21.6225C43.8075 26.298 43.8075 31.3471 45.3539 36.0225C46.0145 38.0094 46.3498 40.0898 46.3469 42.1835V76.826H56.2784V42.184C56.2759 40.0915 56.6112 38.0122 57.2714 36.0266C58.818 31.351 58.818 26.3016 57.2714 21.626ZM54.1364 34.982C53.3622 37.3036 52.9677 39.7348 52.9679 42.182V73.514H49.6574V42.184C49.6582 39.7353 49.2636 37.3025 48.4889 34.9795C47.166 30.9828 47.166 26.6662 48.4889 22.6695C49.2635 20.3469 49.6581 17.9144 49.6574 15.466V9.78955L52.9679 7.30655V15.465C52.9671 17.9141 53.3616 20.3473 54.1364 22.6705C55.4596 26.6677 55.4596 30.9849 54.1364 34.982Z" fill="#0091B3"/>
<path d="M86.774 1.53955L79.028 6.70405L86.074 22.5546V76.8266H96.004V21.8446L86.774 1.53955ZM92.693 73.5161H89.3825V63.5846H92.693V73.5161ZM92.693 60.2741H89.3825V56.9636H92.693V60.2741ZM92.693 53.6531H89.3825V50.3426H92.693V53.6531ZM92.693 47.0321H89.3825V21.8526L83.186 7.90905L85.371 6.45255L92.694 22.5631L92.693 47.0321Z" fill="#0091B3"/>
<path d="M52.968 23.8585H49.6575V27.169H52.968V23.8585Z" fill="#0091B3"/>
<path d="M52.968 30.4795H49.6575V33.79H52.968V30.4795Z" fill="#0091B3"/>
<path d="M14.8969 0.685547H11.5864V30.4801H14.8969V0.685547Z" fill="#0091B3"/>
<path d="M4.96546 63.584H21.5155C22.8325 63.584 24.0955 63.0609 25.0268 62.1296C25.958 61.1983 26.4812 59.9353 26.4812 58.6183C26.4812 57.3013 25.958 56.0382 25.0268 55.107C24.0955 54.1757 22.8325 53.6525 21.5155 53.6525H4.96546C4.52646 53.6525 4.10544 53.4782 3.79502 53.1677C3.4846 52.8573 3.31021 52.4363 3.31021 51.9973C3.31021 51.5583 3.4846 51.1373 3.79502 50.8269C4.10544 50.5164 4.52646 50.342 4.96546 50.342H21.5155C22.8325 50.342 24.0955 49.8189 25.0268 48.8876C25.958 47.9563 26.4812 46.6933 26.4812 45.3763C26.4812 44.0593 25.958 42.7962 25.0268 41.865C24.0955 40.9337 22.8325 40.4105 21.5155 40.4105H16.5525C16.1136 40.4104 15.6927 40.236 15.3823 39.9257C15.072 39.6153 14.8976 39.1944 14.8975 38.7555V33.79H11.5865V38.7555C11.5865 40.0725 12.1096 41.3355 13.0408 42.2667C13.972 43.1979 15.235 43.721 16.552 43.721H21.5175C21.9565 43.721 22.3775 43.8954 22.6879 44.2058C22.9983 44.5163 23.1727 44.9373 23.1727 45.3763C23.1727 45.8153 22.9983 46.2363 22.6879 46.5467C22.3775 46.8572 21.9565 47.0315 21.5175 47.0315H4.96746C3.65046 47.0315 2.3874 47.5547 1.45614 48.486C0.524885 49.4172 0.00170898 50.6803 0.00170898 51.9973C0.00170898 53.3143 0.524885 54.5773 1.45614 55.5086C2.3874 56.4399 3.65046 56.963 4.96746 56.963H21.5175C21.9565 56.963 22.3775 57.1374 22.6879 57.4479C22.9983 57.7583 23.1727 58.1793 23.1727 58.6183C23.1727 59.0573 22.9983 59.4783 22.6879 59.7887C22.3775 60.0991 21.9565 60.2735 21.5175 60.2735H4.96746C3.65046 60.2735 2.3874 60.7967 1.45614 61.728C0.524885 62.6592 0.00170898 63.9223 0.00170898 65.2393C0.00170898 66.5563 0.524885 67.8193 1.45614 68.7506C2.3874 69.6819 3.65046 70.205 4.96746 70.205H21.5175C21.9565 70.205 22.3775 70.3794 22.6879 70.6898C22.9983 71.0003 23.1727 71.4213 23.1727 71.8603C23.1727 72.2993 22.9983 72.7203 22.6879 73.0307C22.3775 73.3412 21.9565 73.5155 21.5175 73.5155H4.96746C3.65046 73.5155 2.3874 74.0387 1.45614 74.97C0.524885 75.9012 0.00170898 77.1643 0.00170898 78.4813C0.00170898 79.7983 0.524885 81.0613 1.45614 81.9926C2.3874 82.9239 3.65046 83.447 4.96746 83.447H21.5175C21.9565 83.447 22.3775 83.6214 22.6879 83.9318C22.9983 84.2423 23.1727 84.6633 23.1727 85.1023C23.1727 85.5413 22.9983 85.9623 22.6879 86.2727C22.3775 86.5831 21.9565 86.7575 21.5175 86.7575H4.96746C3.65046 86.7575 2.3874 87.2807 1.45614 88.212C0.524885 89.1432 0.00170898 90.4063 0.00170898 91.7233C0.00170898 93.0403 0.524885 94.3034 1.45614 95.2346C2.3874 96.1659 3.65046 96.689 4.96746 96.689H21.5175C21.9564 96.6892 22.3772 96.8636 22.6876 97.1739C22.9979 97.4843 23.1723 97.9052 23.1725 98.344V99.999H26.483V98.344C26.483 97.0271 25.9598 95.7641 25.0286 94.8329C24.0974 93.9017 22.8344 93.3785 21.5175 93.3785H4.96746C4.52846 93.3785 4.10744 93.2042 3.79702 92.8937C3.4866 92.5833 3.31221 92.1623 3.31221 91.7233C3.31221 91.2843 3.4866 90.8633 3.79702 90.5528C4.10744 90.2424 4.52846 90.068 4.96746 90.068H21.5175C22.8345 90.068 24.0975 89.5449 25.0288 88.6136C25.96 87.6824 26.4832 86.4193 26.4832 85.1023C26.4832 83.7853 25.96 82.5222 25.0288 81.591C24.0975 80.6597 22.8345 80.1365 21.5175 80.1365H4.96746C4.52846 80.1365 4.10744 79.9621 3.79702 79.6517C3.4866 79.3413 3.31221 78.9203 3.31221 78.4813C3.31221 78.0423 3.4866 77.6213 3.79702 77.3109C4.10744 77.0004 4.52846 76.826 4.96746 76.826H21.5175C22.8345 76.826 24.0975 76.3029 25.0288 75.3716C25.96 74.4403 26.4832 73.1773 26.4832 71.8603C26.4832 70.5433 25.96 69.2802 25.0288 68.349C24.0975 67.4177 22.8345 66.8945 21.5175 66.8945H4.96746C4.52846 66.8945 4.10744 66.7201 3.79702 66.4097C3.4866 66.0993 3.31221 65.6783 3.31221 65.2393C3.31221 64.8003 3.4866 64.3793 3.79702 64.0689C4.10744 63.7584 4.52846 63.584 4.96746 63.584H4.96546Z" fill="#0091B3"/>
</svg>
