<svg width="127" height="99" viewBox="0 0 127 99" fill="none" xmlns="http://www.w3.org/2000/svg">
<path d="M126.75 13.4834C126.724 10.1842 125.39 7.03002 123.042 4.71281C120.693 2.39559 117.521 1.10456 114.222 1.12293C111.48 1.13658 108.78 1.79353 106.339 3.04093C103.898 4.28834 101.783 6.09136 100.166 8.30493C99.4234 9.31522 98.4541 10.1371 97.336 10.7044C96.2179 11.2718 94.9823 11.5687 93.7285 11.5714C92.6737 11.5743 91.6291 11.3666 90.6556 10.9606C89.6822 10.5546 88.7996 9.9584 88.0595 9.20693C84.4296 5.55859 80.0324 2.76489 75.1875 1.02893C74.5698 0.807011 73.8892 0.839555 73.2955 1.11941C72.7018 1.39926 72.2436 1.90349 72.0217 2.52118C71.7998 3.13887 71.8323 3.81942 72.1122 4.41311C72.392 5.0068 72.8963 5.46501 73.514 5.68693C77.6687 7.17589 81.4397 9.57156 84.553 12.6999C84.745 12.8934 84.9435 13.0774 85.145 13.2569C86.1 18.3778 85.5917 23.6642 83.6785 28.5092C81.7652 33.3543 78.5246 37.5617 74.3285 40.6484C74.0335 40.8562 73.7876 41.1259 73.6078 41.4388C73.4281 41.7516 73.319 42.0999 73.288 42.4594C73.2571 42.8189 73.3052 43.1807 73.4289 43.5197C73.5525 43.8586 73.7488 44.1664 74.004 44.4214C75.8812 46.303 76.9355 48.8523 76.9355 51.5102C76.9355 54.168 75.8812 56.7174 74.004 58.5989C72.3201 60.2736 70.9851 62.2657 70.0763 64.4598C69.1675 66.654 68.7029 69.0066 68.7095 71.3814V94.0504H58.2865V71.3819C58.293 69.0071 57.8284 66.6545 56.9196 64.4604C56.0108 62.2662 54.6758 60.2742 52.992 58.5994C51.1147 56.7179 50.0605 54.1685 50.0605 51.5107C50.0605 48.8528 51.1147 46.3035 52.992 44.4219C53.2444 44.1695 53.4392 43.8654 53.5631 43.5305C53.6869 43.1956 53.7368 42.8379 53.7094 42.482C53.6819 42.126 53.5777 41.7802 53.404 41.4682C53.2303 41.1563 52.9911 40.8857 52.703 40.6749C48.4573 37.5616 45.1869 33.3029 43.2747 28.3976C41.3626 23.4924 40.888 18.1438 41.9065 12.9784C42.001 12.8884 42.097 12.8004 42.189 12.7074C45.3037 9.57605 49.0769 7.17795 53.2345 5.68743C53.8522 5.46551 54.3564 5.0073 54.6362 4.41361C54.9161 3.81992 54.9486 3.13937 54.7267 2.52168C54.5048 1.90399 54.0466 1.39976 53.4529 1.11991C52.8592 0.840057 52.1787 0.807511 51.561 1.02943C46.7132 2.76701 42.3137 5.56332 38.6825 9.21493C37.9428 9.96456 37.0611 10.5592 36.0889 10.964C35.1167 11.3688 34.0736 11.5756 33.0205 11.5724C31.7666 11.5695 30.5309 11.2723 29.4128 10.7048C28.2947 10.1373 27.3255 9.31531 26.583 8.30493C24.9658 6.09128 22.8515 4.28813 20.4104 3.04055C17.9693 1.79298 15.2694 1.13581 12.528 1.12193C10.0532 1.08863 7.62533 1.79899 5.55879 3.16107C3.49226 4.52314 1.88218 6.47419 0.937006 8.76164C-0.00817227 11.0491 -0.244927 13.5676 0.257393 15.9911C0.759713 18.4147 1.97797 20.6316 3.75446 22.3549L5.53696 24.0839C4.31468 25.818 3.75814 27.9344 3.96932 30.0454C4.18049 32.1564 5.14524 34.1206 6.6868 35.5782C8.22835 37.0357 10.2435 37.889 12.363 37.9817C14.4825 38.0744 16.5644 37.4003 18.2274 36.0829C19.8903 34.7655 21.0228 32.893 21.4175 30.8085C21.8122 28.724 21.4425 26.5671 20.3763 24.7329C19.3101 22.8988 17.6186 21.5103 15.6119 20.8217C13.6053 20.1332 11.4177 20.1908 9.44996 20.9839L7.19996 18.8049C6.48948 18.1124 5.92447 17.285 5.53809 16.3712C5.15172 15.4574 4.95176 14.4756 4.94996 13.4834C4.94996 9.46643 8.42046 6.07243 12.529 6.07243C14.4929 6.08516 16.4264 6.55862 18.174 7.45473C19.9216 8.35085 21.4345 9.6446 22.591 11.2319C24.1468 13.3544 26.3128 14.952 28.8 15.8118C31.2873 16.6715 33.9775 16.7525 36.512 16.0439C36.1574 21.1057 36.9867 26.1805 38.934 30.8661C40.8813 35.5518 43.8932 39.7195 47.731 43.0389C45.7582 45.9236 44.8546 49.4065 45.1762 52.8863C45.4977 56.3662 47.0241 59.6246 49.492 62.0989C50.7148 63.3151 51.6842 64.7617 52.3442 66.3551C53.0042 67.9484 53.3416 69.6568 53.337 71.3814V96.5249C53.337 97.1812 53.5977 97.8106 54.0617 98.2747C54.5258 98.7387 55.1552 98.9994 55.8115 98.9994H71.184C71.8402 98.9994 72.4696 98.7387 72.9337 98.2747C73.3978 97.8106 73.6585 97.1812 73.6585 96.5249V71.3819C73.6538 69.6573 73.9912 67.9489 74.6512 66.3556C75.3112 64.7622 76.2807 63.3156 77.5035 62.0994C79.9714 59.6251 81.4979 56.3668 81.8195 52.8869C82.1411 49.4071 81.2376 45.9241 79.265 43.0394C83.0938 39.7276 86.1007 35.5715 88.0486 30.8988C89.9964 26.2261 90.8318 21.1647 90.489 16.1139C92.9943 16.7582 95.6352 16.6375 98.0714 15.7675C100.508 14.8975 102.627 13.318 104.158 11.2324C105.315 9.64497 106.828 8.35113 108.575 7.45501C110.323 6.55889 112.257 6.0855 114.221 6.07293C118.329 6.07293 121.8 9.46693 121.8 13.4839C121.798 14.476 121.598 15.4577 121.212 16.3714C120.825 17.2851 120.26 18.1125 119.55 18.8049L117.313 20.9744C115.338 20.1861 113.144 20.1362 111.134 20.8341C109.124 21.5319 107.433 22.9307 106.371 24.774C105.309 26.6174 104.947 28.7817 105.351 30.8704C105.755 32.9591 106.899 34.8322 108.572 36.1463C110.245 37.4604 112.335 38.1276 114.46 38.0254C116.585 37.9233 118.602 37.0588 120.141 35.5903C121.681 34.1218 122.639 32.1477 122.841 30.0299C123.043 27.9121 122.475 25.7924 121.241 24.0594L122.996 22.3594C124.181 21.2044 125.124 19.8243 125.768 18.3001C126.413 16.7759 126.747 15.1383 126.75 13.4834ZM16.62 29.1724C16.62 29.9393 16.3925 30.689 15.9665 31.3267C15.5404 31.9643 14.9348 32.4613 14.2263 32.7548C13.5178 33.0483 12.7382 33.125 11.986 32.9754C11.2338 32.8258 10.5429 32.4565 10.0007 31.9142C9.45838 31.372 9.08908 30.6811 8.93947 29.9289C8.78985 29.1767 8.86664 28.3971 9.16012 27.6886C9.4536 26.9801 9.95059 26.3745 10.5882 25.9484C11.2259 25.5223 11.9756 25.2949 12.7425 25.2949C13.7705 25.296 14.7562 25.7048 15.4831 26.4318C16.21 27.1587 16.6189 28.1444 16.62 29.1724ZM114.053 33.0499C113.287 33.0499 112.537 32.8225 111.899 32.3965C111.262 31.9704 110.765 31.3648 110.471 30.6563C110.178 29.9478 110.101 29.1681 110.25 28.416C110.4 27.6638 110.769 26.9729 111.312 26.4306C111.854 25.8883 112.545 25.5191 113.297 25.3694C114.049 25.2198 114.829 25.2966 115.537 25.5901C116.246 25.8836 116.851 26.3806 117.277 27.0182C117.704 27.6559 117.931 28.4055 117.931 29.1724C117.93 30.2005 117.521 31.1861 116.794 31.9131C116.067 32.64 115.082 33.0489 114.053 33.0499Z" fill="#0091B3"/>
</svg>
