<?xml version="1.0" encoding="UTF-8" standalone="no"?>
<!DOCTYPE svg PUBLIC "-//W3C//DTD SVG 1.1//EN" "http://www.w3.org/Graphics/SVG/1.1/DTD/svg11.dtd">
<svg width="100%" height="100%" viewBox="0 0 6478 3230" version="1.1" xmlns="http://www.w3.org/2000/svg" xmlns:xlink="http://www.w3.org/1999/xlink" xml:space="preserve" xmlns:serif="http://www.serif.com/" style="fill-rule:evenodd;clip-rule:evenodd;stroke-linejoin:round;stroke-miterlimit:2;">
    <g transform="matrix(1,0,0,1,-774.265,-2552)">
        <g id="Layer_2" transform="matrix(4.16667,0,0,4.16667,0,0)">
            <g transform="matrix(0,-775.045,-368.897,0,59.385,1387.52)">
                <path d="M0.01,-0.662C0.035,-0.677 0.06,-0.692 0.084,-0.704C0.113,-0.719 0.142,-0.73 0.172,-0.732C0.207,-0.735 0.242,-0.738 0.277,-0.736C0.299,-0.735 0.321,-0.726 0.343,-0.718C0.389,-0.702 0.435,-0.681 0.48,-0.666C0.512,-0.656 0.544,-0.651 0.576,-0.646C0.595,-0.644 0.614,-0.644 0.633,-0.646C0.661,-0.649 0.687,-0.664 0.714,-0.681C0.788,-0.73 0.856,-0.803 0.923,-0.887C0.943,-0.913 0.962,-0.942 0.982,-0.969C0.986,-0.975 0.987,-0.981 0.986,-0.991C0.98,-1.08 0.97,-1.167 0.954,-1.25C0.933,-1.362 0.902,-1.465 0.864,-1.554C0.821,-1.653 0.771,-1.734 0.714,-1.794C0.67,-1.84 0.624,-1.869 0.576,-1.887C0.54,-1.9 0.504,-1.903 0.468,-1.9C0.44,-1.897 0.412,-1.887 0.384,-1.874C0.312,-1.84 0.246,-1.775 0.188,-1.677C0.115,-1.552 0.061,-1.399 0.029,-1.211C0.015,-1.131 0.007,-1.048 0.002,-0.962C-0.001,-0.907 -0,-0.851 0.001,-0.796C0.002,-0.752 0.006,-0.708 0.009,-0.665C0.009,-0.664 0.009,-0.663 0.01,-0.662ZM0.016,-0.67C0.014,-0.699 0.011,-0.727 0.01,-0.756C0.007,-0.812 0.007,-0.869 0.009,-0.925C0.02,-1.297 0.127,-1.629 0.288,-1.788C0.344,-1.844 0.406,-1.877 0.468,-1.883C0.675,-1.906 0.867,-1.652 0.946,-1.251C0.963,-1.166 0.974,-1.075 0.979,-0.983C0.979,-0.98 0.979,-0.974 0.978,-0.973C0.968,-0.963 0.958,-0.954 0.948,-0.944L0.947,-0.957C0.944,-0.99 0.942,-1.024 0.939,-1.057C0.922,-1.216 0.889,-1.359 0.838,-1.483C0.791,-1.599 0.731,-1.689 0.664,-1.745C0.618,-1.784 0.569,-1.807 0.519,-1.812C0.493,-1.815 0.466,-1.813 0.44,-1.806C0.403,-1.797 0.368,-1.779 0.333,-1.751C0.274,-1.704 0.22,-1.63 0.175,-1.535C0.095,-1.367 0.048,-1.143 0.042,-0.907C0.04,-0.844 0.042,-0.782 0.046,-0.72C0.047,-0.716 0.046,-0.71 0.045,-0.708C0.035,-0.695 0.026,-0.683 0.016,-0.67L0.016,-0.67ZM0.216,-1.588C0.215,-1.586 0.215,-1.585 0.215,-1.584C0.202,-1.54 0.194,-1.492 0.192,-1.441C0.191,-1.418 0.186,-1.404 0.177,-1.39C0.141,-1.332 0.121,-1.254 0.118,-1.158C0.118,-1.145 0.114,-1.133 0.109,-1.126C0.086,-1.094 0.069,-1.051 0.057,-0.999C0.057,-0.996 0.056,-0.993 0.055,-0.989C0.071,-1.234 0.125,-1.433 0.216,-1.588ZM0.773,-1.59C0.863,-1.438 0.917,-1.243 0.935,-1.004C0.933,-1.008 0.931,-1.013 0.93,-1.018C0.919,-1.062 0.903,-1.099 0.884,-1.126C0.876,-1.137 0.873,-1.15 0.872,-1.168C0.87,-1.221 0.862,-1.27 0.847,-1.314C0.836,-1.348 0.822,-1.377 0.807,-1.401C0.802,-1.408 0.798,-1.416 0.798,-1.428C0.796,-1.479 0.789,-1.529 0.777,-1.573C0.776,-1.579 0.775,-1.584 0.773,-1.59ZM0.334,-1.732C0.441,-1.818 0.548,-1.819 0.654,-1.734C0.652,-1.733 0.65,-1.732 0.648,-1.733C0.625,-1.733 0.602,-1.724 0.581,-1.702C0.572,-1.693 0.564,-1.693 0.555,-1.702C0.514,-1.74 0.473,-1.739 0.433,-1.701C0.423,-1.693 0.415,-1.692 0.406,-1.702C0.391,-1.717 0.375,-1.726 0.359,-1.729C0.35,-1.73 0.342,-1.731 0.334,-1.732L0.334,-1.732ZM0.712,-1.677C0.672,-1.633 0.604,-1.634 0.578,-1.68C0.616,-1.731 0.683,-1.724 0.712,-1.677ZM0.2,-1.423C0.196,-1.508 0.233,-1.639 0.266,-1.662C0.266,-1.66 0.266,-1.659 0.266,-1.657C0.266,-1.654 0.266,-1.65 0.266,-1.646C0.261,-1.57 0.244,-1.5 0.217,-1.448C0.212,-1.438 0.206,-1.431 0.2,-1.423ZM0.28,-1.679C0.31,-1.726 0.376,-1.726 0.41,-1.679C0.407,-1.675 0.404,-1.672 0.402,-1.669C0.37,-1.64 0.337,-1.637 0.303,-1.654C0.295,-1.659 0.286,-1.666 0.28,-1.679ZM0.34,-0.876C0.299,-0.935 0.277,-1.016 0.273,-1.121C0.276,-1.116 0.279,-1.114 0.281,-1.11C0.305,-1.071 0.323,-1.021 0.334,-0.962C0.339,-0.935 0.343,-0.907 0.34,-0.876ZM0.723,-1.663C0.755,-1.643 0.796,-1.493 0.788,-1.428C0.758,-1.457 0.719,-1.582 0.723,-1.663ZM0.799,-1.392C0.84,-1.333 0.861,-1.254 0.866,-1.15C0.86,-1.157 0.856,-1.161 0.852,-1.168C0.828,-1.208 0.813,-1.261 0.803,-1.321C0.799,-1.343 0.796,-1.366 0.799,-1.392ZM0.56,-1.68C0.527,-1.631 0.46,-1.632 0.428,-1.68C0.472,-1.724 0.516,-1.724 0.56,-1.68ZM0.49,-0.88C0.455,-0.913 0.419,-1.053 0.425,-1.115C0.456,-1.091 0.496,-0.946 0.49,-0.88ZM0.125,-1.153C0.125,-1.161 0.125,-1.168 0.126,-1.175C0.131,-1.25 0.147,-1.312 0.173,-1.365C0.177,-1.375 0.183,-1.384 0.19,-1.387C0.192,-1.308 0.161,-1.19 0.125,-1.153ZM0.414,-1.152C0.379,-1.195 0.343,-1.327 0.35,-1.39C0.386,-1.351 0.42,-1.218 0.414,-1.152ZM0.861,-1.133C0.817,-1.09 0.774,-1.09 0.73,-1.133C0.763,-1.179 0.829,-1.179 0.861,-1.133ZM0.939,-0.935C0.932,-0.929 0.925,-0.922 0.919,-0.916C0.918,-0.915 0.915,-0.917 0.914,-0.919C0.896,-0.961 0.883,-1.008 0.876,-1.062C0.873,-1.08 0.872,-1.099 0.875,-1.12C0.908,-1.075 0.927,-1.012 0.939,-0.935ZM0.2,-1.39C0.24,-1.334 0.263,-1.239 0.264,-1.155C0.232,-1.183 0.193,-1.326 0.2,-1.39ZM0.639,-0.882C0.636,-0.885 0.634,-0.888 0.631,-0.892C0.603,-0.939 0.585,-1 0.577,-1.073C0.575,-1.086 0.575,-1.1 0.575,-1.115C0.61,-1.078 0.645,-0.946 0.639,-0.882ZM0.05,-0.878C0.054,-0.979 0.075,-1.057 0.114,-1.116C0.117,-1.042 0.09,-0.921 0.05,-0.878ZM0.149,-1.101C0.181,-1.085 0.213,-1.083 0.244,-1.105C0.22,-1.057 0.204,-1.001 0.195,-0.933C0.185,-0.995 0.17,-1.052 0.149,-1.101ZM0.494,-1.343C0.502,-1.277 0.518,-1.217 0.542,-1.17C0.51,-1.182 0.478,-1.188 0.446,-1.168C0.471,-1.217 0.486,-1.275 0.494,-1.343ZM0.558,-1.134C0.524,-1.09 0.462,-1.092 0.431,-1.134C0.465,-1.179 0.528,-1.176 0.558,-1.134L0.558,-1.134ZM0.564,-1.661C0.566,-1.585 0.527,-1.445 0.501,-1.432C0.496,-1.496 0.532,-1.635 0.564,-1.661ZM0.576,-1.154C0.572,-1.229 0.608,-1.359 0.639,-1.386C0.639,-1.382 0.639,-1.377 0.639,-1.372C0.634,-1.297 0.618,-1.233 0.593,-1.179C0.588,-1.17 0.582,-1.163 0.576,-1.154ZM0.487,-1.429C0.449,-1.486 0.428,-1.563 0.424,-1.663C0.427,-1.658 0.43,-1.655 0.432,-1.652C0.459,-1.607 0.476,-1.548 0.486,-1.481C0.489,-1.464 0.49,-1.447 0.487,-1.429ZM0.72,-1.209C0.714,-1.238 0.709,-1.269 0.701,-1.297C0.693,-1.325 0.683,-1.35 0.674,-1.375C0.704,-1.357 0.736,-1.357 0.766,-1.375C0.745,-1.327 0.73,-1.27 0.72,-1.209ZM0.466,-1.44C0.435,-1.46 0.404,-1.461 0.372,-1.443C0.395,-1.488 0.411,-1.547 0.418,-1.611C0.425,-1.58 0.43,-1.549 0.438,-1.521C0.446,-1.492 0.456,-1.467 0.466,-1.44ZM0.575,-1.661C0.612,-1.615 0.64,-1.506 0.638,-1.43C0.636,-1.433 0.633,-1.437 0.63,-1.441C0.604,-1.486 0.586,-1.544 0.577,-1.613C0.574,-1.628 0.573,-1.644 0.575,-1.661L0.575,-1.661ZM0.351,-0.882C0.35,-0.966 0.385,-1.091 0.416,-1.116C0.412,-1.027 0.393,-0.942 0.351,-0.882ZM0.35,-1.432C0.346,-1.507 0.389,-1.645 0.413,-1.658C0.417,-1.59 0.379,-1.454 0.35,-1.432L0.35,-1.432ZM0.275,-1.156C0.27,-1.22 0.308,-1.366 0.339,-1.387C0.335,-1.289 0.313,-1.213 0.275,-1.156ZM0.79,-0.882C0.758,-0.913 0.72,-1.051 0.727,-1.113C0.764,-1.062 0.787,-0.973 0.79,-0.882ZM0.616,-1.375C0.594,-1.328 0.577,-1.27 0.569,-1.205C0.561,-1.271 0.544,-1.33 0.52,-1.376C0.552,-1.356 0.584,-1.355 0.616,-1.375ZM0.28,-1.135C0.323,-1.177 0.366,-1.177 0.409,-1.137C0.378,-1.095 0.316,-1.089 0.28,-1.135ZM0.339,-1.43C0.304,-1.474 0.271,-1.594 0.275,-1.658C0.304,-1.641 0.341,-1.51 0.339,-1.43ZM0.563,-1.114C0.563,-1.11 0.563,-1.108 0.563,-1.105C0.563,-1.1 0.563,-1.094 0.563,-1.089C0.557,-1.019 0.541,-0.955 0.517,-0.906C0.512,-0.896 0.506,-0.889 0.5,-0.881C0.504,-0.98 0.525,-1.056 0.563,-1.114ZM0.865,-1.115L0.865,-1.098C0.86,-1.024 0.844,-0.961 0.819,-0.908C0.814,-0.897 0.807,-0.89 0.801,-0.881C0.805,-0.981 0.826,-1.057 0.865,-1.115L0.865,-1.115ZM0.72,-1.068C0.728,-1.001 0.743,-0.944 0.766,-0.896C0.735,-0.914 0.704,-0.912 0.672,-0.894C0.696,-0.941 0.712,-1.002 0.72,-1.068ZM0.57,-1.061C0.578,-0.997 0.594,-0.941 0.617,-0.893C0.587,-0.912 0.555,-0.913 0.525,-0.895C0.533,-0.92 0.543,-0.945 0.551,-0.973C0.559,-1 0.564,-1.032 0.57,-1.061ZM0.425,-1.156C0.423,-1.235 0.456,-1.35 0.488,-1.386C0.492,-1.318 0.457,-1.191 0.425,-1.156ZM0.599,-1.17C0.621,-1.216 0.637,-1.274 0.645,-1.337C0.653,-1.272 0.668,-1.217 0.691,-1.169C0.66,-1.188 0.629,-1.184 0.599,-1.17L0.599,-1.17ZM0.505,-0.861C0.552,-0.908 0.601,-0.896 0.633,-0.86C0.603,-0.818 0.535,-0.818 0.505,-0.861ZM0.127,-1.113C0.164,-1.056 0.185,-0.98 0.19,-0.883C0.159,-0.909 0.119,-1.053 0.127,-1.113L0.127,-1.113ZM0.355,-0.859C0.389,-0.903 0.451,-0.901 0.482,-0.859C0.442,-0.818 0.397,-0.817 0.355,-0.859ZM0.314,-0.896C0.283,-0.913 0.252,-0.913 0.22,-0.893C0.244,-0.94 0.26,-0.998 0.269,-1.064C0.276,-1 0.292,-0.942 0.314,-0.896ZM0.206,-1.407C0.233,-1.451 0.308,-1.451 0.333,-1.408C0.291,-1.367 0.249,-1.367 0.206,-1.407ZM0.784,-0.862C0.746,-0.814 0.681,-0.824 0.657,-0.863C0.699,-0.903 0.742,-0.902 0.784,-0.862ZM0.709,-1.136C0.706,-1.132 0.703,-1.129 0.7,-1.127C0.671,-1.102 0.641,-1.1 0.611,-1.11C0.6,-1.114 0.59,-1.121 0.582,-1.136C0.618,-1.174 0.665,-1.179 0.709,-1.136ZM0.692,-1.101C0.67,-1.055 0.654,-0.997 0.646,-0.934C0.64,-0.963 0.635,-0.994 0.627,-1.022C0.62,-1.05 0.609,-1.075 0.6,-1.101C0.63,-1.082 0.661,-1.083 0.692,-1.101ZM0.783,-1.411C0.751,-1.365 0.682,-1.369 0.657,-1.411C0.699,-1.451 0.741,-1.451 0.783,-1.411ZM0.714,-1.115C0.714,-1.111 0.714,-1.106 0.714,-1.101C0.71,-1.03 0.695,-0.968 0.672,-0.914C0.667,-0.901 0.66,-0.889 0.651,-0.883C0.655,-0.981 0.676,-1.057 0.714,-1.115ZM0.5,-1.385C0.501,-1.385 0.502,-1.384 0.502,-1.384C0.504,-1.382 0.506,-1.38 0.507,-1.377C0.534,-1.335 0.55,-1.278 0.56,-1.213C0.563,-1.196 0.564,-1.177 0.563,-1.159C0.533,-1.187 0.498,-1.313 0.5,-1.385ZM0.259,-1.137C0.216,-1.095 0.174,-1.095 0.131,-1.135C0.17,-1.176 0.216,-1.18 0.259,-1.137ZM0.794,-0.93C0.787,-0.994 0.772,-1.051 0.747,-1.1C0.785,-1.081 0.789,-1.081 0.838,-1.095C0.829,-1.07 0.82,-1.045 0.812,-1.018C0.805,-0.99 0.8,-0.959 0.794,-0.93ZM0.714,-1.155C0.675,-1.213 0.655,-1.29 0.65,-1.388C0.689,-1.331 0.71,-1.255 0.714,-1.155ZM0.522,-1.442C0.545,-1.487 0.561,-1.544 0.569,-1.607C0.578,-1.544 0.593,-1.49 0.616,-1.443C0.578,-1.46 0.561,-1.461 0.522,-1.442ZM0.79,-1.389C0.786,-1.291 0.765,-1.214 0.726,-1.158C0.73,-1.256 0.752,-1.332 0.79,-1.389ZM0.421,-1.212C0.414,-1.241 0.409,-1.272 0.402,-1.299C0.394,-1.326 0.383,-1.35 0.374,-1.375C0.404,-1.357 0.436,-1.357 0.466,-1.375C0.444,-1.33 0.429,-1.274 0.421,-1.212ZM0.633,-1.409C0.6,-1.368 0.528,-1.368 0.506,-1.409C0.548,-1.45 0.59,-1.45 0.633,-1.409L0.633,-1.409ZM0.315,-1.373C0.293,-1.327 0.278,-1.273 0.269,-1.21C0.261,-1.272 0.246,-1.326 0.226,-1.37C0.24,-1.367 0.255,-1.362 0.27,-1.362C0.285,-1.362 0.3,-1.369 0.315,-1.373ZM0.356,-1.408C0.39,-1.452 0.452,-1.448 0.482,-1.407C0.44,-1.367 0.398,-1.367 0.356,-1.408ZM0.344,-1.334C0.352,-1.274 0.366,-1.219 0.387,-1.175C0.372,-1.178 0.357,-1.183 0.342,-1.182C0.326,-1.181 0.311,-1.174 0.297,-1.17C0.319,-1.214 0.335,-1.269 0.344,-1.334ZM0.465,-0.895C0.435,-0.913 0.403,-0.912 0.373,-0.894C0.396,-0.941 0.411,-0.995 0.42,-1.058C0.428,-0.995 0.443,-0.941 0.465,-0.895ZM0.201,-0.886C0.201,-0.896 0.201,-0.905 0.202,-0.914C0.205,-0.953 0.213,-0.988 0.222,-1.022C0.23,-1.05 0.239,-1.077 0.252,-1.098C0.255,-1.103 0.259,-1.107 0.263,-1.112C0.263,-1.023 0.232,-0.924 0.201,-0.886ZM0.673,-1.446C0.695,-1.489 0.709,-1.541 0.718,-1.601C0.728,-1.546 0.741,-1.495 0.761,-1.45C0.745,-1.452 0.731,-1.456 0.717,-1.455C0.702,-1.454 0.688,-1.449 0.673,-1.446ZM0.166,-0.895C0.137,-0.912 0.107,-0.912 0.076,-0.897C0.098,-0.943 0.113,-1 0.12,-1.063C0.129,-0.998 0.144,-0.942 0.166,-0.895ZM0.183,-0.862C0.138,-0.818 0.091,-0.826 0.056,-0.862C0.098,-0.901 0.14,-0.903 0.183,-0.862ZM0.302,-1.097C0.332,-1.082 0.363,-1.083 0.393,-1.102C0.37,-1.058 0.354,-1.003 0.345,-0.941C0.337,-1 0.323,-1.051 0.302,-1.097ZM0.908,-0.908L0.908,-0.904C0.905,-0.903 0.901,-0.902 0.898,-0.903C0.881,-0.909 0.863,-0.91 0.845,-0.904C0.842,-0.903 0.838,-0.901 0.835,-0.9C0.831,-0.898 0.828,-0.897 0.823,-0.895C0.844,-0.938 0.86,-0.992 0.869,-1.052C0.878,-0.999 0.89,-0.95 0.908,-0.908ZM0.271,-1.603C0.279,-1.542 0.295,-1.487 0.317,-1.443C0.288,-1.46 0.257,-1.462 0.228,-1.447C0.248,-1.491 0.263,-1.544 0.271,-1.603ZM0.601,-1.64C0.631,-1.624 0.659,-1.624 0.687,-1.638C0.679,-1.614 0.669,-1.59 0.662,-1.563C0.655,-1.535 0.65,-1.506 0.644,-1.478C0.637,-1.538 0.623,-1.592 0.601,-1.64ZM0.495,-0.942C0.487,-0.999 0.472,-1.052 0.452,-1.095C0.482,-1.08 0.511,-1.082 0.541,-1.099C0.519,-1.056 0.504,-1.002 0.495,-0.942ZM0.334,-0.861C0.332,-0.859 0.33,-0.857 0.328,-0.855C0.319,-0.849 0.31,-0.839 0.301,-0.838C0.279,-0.836 0.258,-0.838 0.237,-0.839C0.226,-0.839 0.217,-0.85 0.207,-0.862C0.249,-0.905 0.297,-0.9 0.334,-0.861ZM0.836,-1.173C0.807,-1.189 0.778,-1.188 0.749,-1.171C0.77,-1.214 0.785,-1.268 0.793,-1.328C0.799,-1.301 0.804,-1.272 0.811,-1.246C0.818,-1.221 0.828,-1.197 0.836,-1.173ZM0.712,-1.653C0.711,-1.572 0.688,-1.483 0.651,-1.431C0.648,-1.499 0.681,-1.619 0.712,-1.653L0.712,-1.653ZM0.494,-1.48C0.487,-1.54 0.472,-1.594 0.452,-1.639C0.479,-1.624 0.509,-1.624 0.537,-1.639C0.516,-1.594 0.502,-1.539 0.494,-1.48L0.494,-1.48ZM0.151,-1.171C0.172,-1.215 0.187,-1.267 0.195,-1.331C0.203,-1.27 0.217,-1.219 0.237,-1.175C0.208,-1.189 0.179,-1.187 0.151,-1.171L0.151,-1.171ZM0.344,-1.483C0.337,-1.54 0.323,-1.593 0.304,-1.635C0.317,-1.633 0.331,-1.628 0.345,-1.629C0.358,-1.629 0.372,-1.633 0.385,-1.636C0.366,-1.593 0.352,-1.542 0.344,-1.483ZM0.614,-0.825C0.614,-0.824 0.614,-0.824 0.614,-0.823C0.603,-0.792 0.591,-0.763 0.583,-0.728C0.582,-0.725 0.58,-0.724 0.578,-0.724C0.572,-0.725 0.567,-0.727 0.561,-0.728C0.557,-0.729 0.556,-0.732 0.554,-0.738C0.547,-0.761 0.539,-0.783 0.532,-0.804C0.529,-0.812 0.526,-0.818 0.522,-0.825C0.567,-0.804 0.583,-0.81 0.614,-0.825ZM0.673,-0.829C0.704,-0.811 0.736,-0.806 0.767,-0.829C0.76,-0.808 0.753,-0.79 0.745,-0.772C0.744,-0.77 0.743,-0.768 0.742,-0.768C0.73,-0.76 0.718,-0.752 0.705,-0.745C0.704,-0.745 0.703,-0.745 0.702,-0.747C0.692,-0.774 0.683,-0.801 0.673,-0.829ZM0.64,-0.841C0.64,-0.797 0.633,-0.759 0.624,-0.722C0.624,-0.72 0.623,-0.719 0.622,-0.718C0.611,-0.719 0.601,-0.72 0.589,-0.721C0.602,-0.771 0.617,-0.812 0.64,-0.841ZM0.065,-0.731C0.056,-0.768 0.049,-0.804 0.051,-0.846C0.068,-0.824 0.082,-0.795 0.092,-0.759L0.065,-0.731ZM0.652,-0.838C0.67,-0.811 0.684,-0.779 0.695,-0.739C0.686,-0.735 0.678,-0.731 0.669,-0.728C0.668,-0.728 0.666,-0.729 0.665,-0.732C0.657,-0.764 0.651,-0.798 0.652,-0.838L0.652,-0.838ZM0.169,-0.829C0.165,-0.823 0.162,-0.813 0.158,-0.81C0.139,-0.795 0.121,-0.782 0.102,-0.768C0.101,-0.768 0.099,-0.768 0.099,-0.769C0.092,-0.788 0.085,-0.806 0.078,-0.825C0.109,-0.809 0.139,-0.812 0.169,-0.829ZM0.546,-0.733C0.537,-0.737 0.529,-0.741 0.521,-0.743C0.512,-0.745 0.507,-0.753 0.505,-0.772C0.502,-0.793 0.5,-0.815 0.5,-0.839C0.52,-0.813 0.534,-0.776 0.546,-0.733ZM0.807,-0.859C0.829,-0.889 0.869,-0.897 0.889,-0.888C0.877,-0.878 0.867,-0.868 0.856,-0.858C0.832,-0.836 0.832,-0.836 0.807,-0.858C0.807,-0.859 0.807,-0.859 0.807,-0.859L0.807,-0.859ZM0.465,-0.822C0.459,-0.809 0.454,-0.796 0.448,-0.783C0.447,-0.781 0.446,-0.781 0.445,-0.781C0.424,-0.792 0.402,-0.802 0.381,-0.813C0.379,-0.813 0.378,-0.816 0.377,-0.818L0.377,-0.821C0.406,-0.81 0.436,-0.81 0.465,-0.822ZM0.49,-0.841C0.491,-0.814 0.488,-0.786 0.483,-0.761C0.474,-0.766 0.465,-0.771 0.455,-0.776C0.465,-0.802 0.476,-0.824 0.49,-0.841L0.49,-0.841ZM0.657,-0.723C0.649,-0.722 0.641,-0.72 0.633,-0.718L0.646,-0.79L0.657,-0.723ZM0.757,-0.778C0.766,-0.804 0.775,-0.826 0.79,-0.839C0.789,-0.826 0.789,-0.815 0.788,-0.805C0.787,-0.802 0.786,-0.8 0.785,-0.799C0.776,-0.792 0.767,-0.785 0.757,-0.778ZM0.801,-0.841C0.805,-0.834 0.809,-0.828 0.814,-0.821L0.801,-0.812L0.801,-0.841ZM0.35,-0.844C0.355,-0.836 0.359,-0.829 0.363,-0.823C0.363,-0.822 0.363,-0.821 0.364,-0.82C0.35,-0.825 0.35,-0.825 0.35,-0.844L0.35,-0.844ZM0.491,-0.757L0.495,-0.783L0.499,-0.754L0.491,-0.757ZM0.178,-0.823L0.189,-0.841C0.189,-0.824 0.189,-0.823 0.178,-0.823ZM0.34,-0.828C0.337,-0.829 0.335,-0.83 0.332,-0.831L0.332,-0.833L0.342,-0.842L0.34,-0.828Z" style="fill:url(#_Linear1);fill-rule:nonzero;"/>
            </g>
            <g transform="matrix(0,-775.045,-368.897,0,-567.571,1387.52)">
                <path d="M0.527,-2.207C0.506,-2.207 0.488,-2.17 0.488,-2.125C0.488,-2.08 0.506,-2.042 0.527,-2.042C0.549,-2.043 0.566,-2.08 0.566,-2.125L0.566,-2.125C0.566,-2.17 0.549,-2.207 0.527,-2.207C0.527,-2.207 0.527,-2.207 0.527,-2.207Z" style="fill:url(#_Linear2);fill-rule:nonzero;"/>
            </g>
            <g transform="matrix(0.729937,-775.043,-368.896,-1.53358,-560.02,1384.28)">
                <path d="M0.635,-2.186C0.616,-2.185 0.601,-2.153 0.6,-2.114C0.6,-2.075 0.616,-2.042 0.635,-2.042C0.653,-2.042 0.669,-2.074 0.669,-2.114C0.669,-2.153 0.654,-2.186 0.635,-2.186Z" style="fill:url(#_Linear3);fill-rule:nonzero;"/>
            </g>
            <g transform="matrix(-368.822,15.5761,7.41372,774.888,394.696,2685.07)">
                <path d="M0.416,-2.133C0.379,-2.132 0.349,-2.117 0.349,-2.099C0.35,-2.082 0.38,-2.068 0.416,-2.068C0.453,-2.069 0.484,-2.084 0.485,-2.102C0.485,-2.119 0.454,-2.134 0.416,-2.133Z" style="fill:url(#_Linear4);fill-rule:nonzero;"/>
            </g>
            <g transform="matrix(0,-775.045,-368.897,0,-535.492,1387.52)">
                <path d="M0.751,-2.148C0.733,-2.148 0.719,-2.118 0.719,-2.081C0.719,-2.045 0.733,-2.014 0.751,-2.014C0.768,-2.014 0.783,-2.045 0.783,-2.081L0.783,-2.081C0.782,-2.118 0.768,-2.148 0.751,-2.148Z" style="fill:url(#_Linear5);fill-rule:nonzero;"/>
            </g>
            <g transform="matrix(0,-775.045,-368.897,0,-479.884,1387.52)">
                <path d="M0.182,-2.006C0.182,-2.005 0.182,-2.005 0.182,-2.005C0.182,-1.971 0.195,-1.943 0.211,-1.943C0.211,-1.943 0.212,-1.943 0.212,-1.943C0.228,-1.943 0.241,-1.971 0.242,-2.005C0.242,-2.039 0.228,-2.069 0.211,-2.068C0.195,-2.068 0.182,-2.04 0.182,-2.006Z" style="fill:url(#_Linear6);fill-rule:nonzero;"/>
            </g>
            <g transform="matrix(0,-775.045,-368.897,0,-498.931,1387.52)">
                <path d="M0.317,-2.09C0.302,-2.09 0.289,-2.063 0.289,-2.032C0.29,-2 0.302,-1.974 0.317,-1.974C0.332,-1.973 0.345,-2 0.345,-2.032C0.345,-2.032 0.345,-2.032 0.345,-2.033C0.345,-2.064 0.332,-2.09 0.317,-2.09C0.317,-2.09 0.317,-2.09 0.317,-2.09Z" style="fill:url(#_Linear7);fill-rule:nonzero;"/>
            </g>
            <g transform="matrix(0,-775.045,-368.897,0,-477.425,1387.52)">
                <path d="M0.869,-2.003C0.869,-2.035 0.857,-2.06 0.842,-2.06L0.841,-2.06C0.826,-2.06 0.814,-2.034 0.814,-2.002C0.814,-1.971 0.826,-1.945 0.841,-1.945C0.842,-1.945 0.842,-1.945 0.842,-1.945C0.857,-1.945 0.869,-1.971 0.869,-2.002C0.869,-2.003 0.869,-2.003 0.869,-2.003Z" style="fill:url(#_Linear8);fill-rule:nonzero;"/>
            </g>
            <g transform="matrix(0,-775.045,-368.897,0,-479.048,1387.52)">
                <path d="M0.147,-2.005C0.147,-2.034 0.135,-2.058 0.122,-2.058C0.122,-2.058 0.121,-2.058 0.121,-2.058C0.107,-2.058 0.096,-2.034 0.096,-2.005C0.096,-1.976 0.107,-1.952 0.121,-1.952C0.122,-1.952 0.122,-1.952 0.122,-1.952C0.136,-1.952 0.147,-1.976 0.147,-2.005Z" style="fill:url(#_Linear9);fill-rule:nonzero;"/>
            </g>
            <g transform="matrix(0.919282,-775.043,-368.896,-1.93139,-408.886,1383.83)">
                <path d="M0.921,-1.96C0.907,-1.96 0.896,-1.936 0.896,-1.908C0.896,-1.881 0.907,-1.856 0.921,-1.857C0.934,-1.857 0.945,-1.88 0.945,-1.909C0.945,-1.937 0.934,-1.96 0.921,-1.96Z" style="fill:url(#_Linear10);fill-rule:nonzero;"/>
            </g>
            <g transform="matrix(0,-775.045,-368.897,0,-516.632,1387.52)">
                <path d="M0.06,-2.057C0.06,-2.081 0.051,-2.1 0.039,-2.1C0.028,-2.1 0.018,-2.08 0.018,-2.056C0.018,-2.031 0.028,-2.011 0.039,-2.011L0.039,-2.011C0.051,-2.011 0.06,-2.031 0.06,-2.056C0.06,-2.056 0.06,-2.056 0.06,-2.057Z" style="fill:url(#_Linear11);fill-rule:nonzero;"/>
            </g>
            <g transform="matrix(0,-775.045,-368.897,0,-310.164,1387.52)">
                <path d="M0.98,-1.734L0.98,-1.734C0.991,-1.734 1,-1.753 1,-1.775L1,-1.776C1,-1.799 0.991,-1.818 0.98,-1.818C0.969,-1.817 0.96,-1.799 0.96,-1.776L0.96,-1.776C0.96,-1.753 0.969,-1.734 0.98,-1.734Z" style="fill:url(#_Linear12);fill-rule:nonzero;"/>
            </g>
            <g transform="matrix(0,-82.4474,-32.8823,0,693.376,1236.73)">
                <path d="M0.934,-8.617L0.652,-8.617L0.652,-9.549L0.586,-9.549L0.586,-8.617L0.281,-8.617L0.281,-8.427L1,-8.427L1,-9.662L0.934,-9.662L0.934,-8.617Z" style="fill:url(#_Linear13);fill-rule:nonzero;"/>
            </g>
            <g transform="matrix(32.8823,0,0,-82.4474,1006.1,529.463)">
                <rect x="0.545" y="-8.297" width="0.19" height="0.719" style="fill:url(#_Linear14);"/>
            </g>
            <g transform="matrix(0,-82.4474,-32.8823,0,847.92,1236.73)">
                <path d="M0.347,-7.433L0.281,-7.433L0.281,-5.956L0.334,-5.956L0.934,-7.15L0.934,-5.974L1,-5.974L1,-7.402L0.948,-7.402L0.347,-6.211L0.347,-7.433Z" style="fill:url(#_Linear15);fill-rule:nonzero;"/>
            </g>
            <g transform="matrix(0,-82.4474,-32.8823,0,934.76,1236.73)">
                <path d="M0.275,-5.361C0.275,-5.258 0.284,-5.163 0.302,-5.075C0.32,-4.988 0.345,-4.917 0.378,-4.862L0.429,-4.975C0.37,-5.074 0.341,-5.204 0.341,-5.364C0.341,-5.587 0.394,-5.698 0.499,-5.698L0.934,-5.698L0.934,-5.039L1,-5.039L1,-5.886L0.502,-5.886C0.427,-5.886 0.37,-5.842 0.332,-5.754C0.294,-5.665 0.275,-5.534 0.275,-5.361Z" style="fill:url(#_Linear16);fill-rule:nonzero;"/>
            </g>
            <g transform="matrix(0,-82.4474,-32.8823,0,1057.73,1236.73)">
                <path d="M0.275,-3.506C0.275,-3.327 0.291,-3.165 0.323,-3.02C0.355,-2.875 0.398,-2.762 0.454,-2.68C0.509,-2.599 0.572,-2.558 0.641,-2.558C0.71,-2.558 0.772,-2.599 0.828,-2.68C0.883,-2.762 0.927,-2.875 0.958,-3.02C0.99,-3.165 1.006,-3.327 1.006,-3.506C1.006,-3.684 0.99,-3.845 0.959,-3.988C0.927,-4.131 0.884,-4.244 0.828,-4.327C0.772,-4.409 0.71,-4.45 0.641,-4.45C0.572,-4.45 0.509,-4.409 0.453,-4.327C0.398,-4.244 0.354,-4.131 0.322,-3.988C0.291,-3.845 0.275,-3.684 0.275,-3.506ZM0.343,-3.506C0.343,-3.648 0.356,-3.776 0.382,-3.891C0.407,-4.006 0.443,-4.097 0.488,-4.162C0.534,-4.227 0.585,-4.26 0.641,-4.26C0.697,-4.26 0.748,-4.227 0.793,-4.162C0.839,-4.097 0.874,-4.006 0.9,-3.891C0.926,-3.776 0.938,-3.648 0.938,-3.506C0.938,-3.363 0.926,-3.234 0.9,-3.118C0.874,-3.002 0.839,-2.911 0.793,-2.845C0.748,-2.779 0.697,-2.746 0.641,-2.746C0.585,-2.746 0.534,-2.779 0.488,-2.845C0.443,-2.911 0.407,-3.002 0.382,-3.118C0.356,-3.234 0.343,-3.363 0.343,-3.506Z" style="fill:url(#_Linear17);fill-rule:nonzero;"/>
            </g>
            <g transform="matrix(0,-82.4474,-32.8823,0,1175.63,1236.73)">
                <path d="M0.934,-1.616L0.934,-0.983L1,-0.983L1,-2.44L0.934,-2.44L0.934,-1.807L0.281,-1.807L0.281,-1.616L0.934,-1.616Z" style="fill:url(#_Linear18);fill-rule:nonzero;"/>
            </g>
            <g transform="matrix(0,-82.4474,-32.8823,0,1285.4,1236.73)">
                <path d="M0.347,-0.679L0.281,-0.679L0.281,0.595L1,0.595L1,-0.641L0.934,-0.641L0.934,0.404L0.679,0.404L0.679,-0.528L0.614,-0.528L0.614,0.404L0.347,0.404L0.347,-0.679Z" style="fill:url(#_Linear19);fill-rule:nonzero;"/>
            </g>
            <g transform="matrix(0,-82.4474,-32.8823,0,1404.07,1236.73)">
                <path d="M0.281,1.251L0.512,1.663C0.51,1.709 0.509,1.757 0.509,1.807L0.509,2.291L0.281,2.291L0.281,2.482L1,2.482L1,1.807C1,1.577 0.978,1.397 0.934,1.267C0.891,1.136 0.83,1.071 0.754,1.071C0.698,1.071 0.65,1.107 0.611,1.178C0.573,1.249 0.545,1.351 0.528,1.483L0.281,1.043L0.281,1.251ZM0.574,1.813C0.574,1.634 0.59,1.498 0.621,1.403C0.653,1.309 0.697,1.262 0.754,1.262C0.812,1.262 0.856,1.309 0.888,1.403C0.919,1.498 0.934,1.634 0.934,1.813L0.934,2.291L0.574,2.291L0.574,1.813Z" style="fill:url(#_Linear20);fill-rule:nonzero;"/>
            </g>
            <g transform="matrix(0,-82.4474,-32.8823,0,1520.52,1236.73)">
                <path d="M0.473,3.032L0.473,4.036L0.281,4.252L0.281,4.45L1,3.627L1,3.439L0.281,2.615L0.281,2.816L0.473,3.032ZM0.535,3.102L0.921,3.534L0.535,3.967L0.535,3.102Z" style="fill:url(#_Linear21);fill-rule:nonzero;"/>
            </g>
            <g transform="matrix(0,-82.4474,-32.8823,0,1646.88,1236.73)">
                <path d="M1,5.485C1,5.255 0.978,5.075 0.934,4.945C0.891,4.814 0.83,4.749 0.754,4.749C0.677,4.749 0.617,4.814 0.573,4.945C0.53,5.075 0.508,5.255 0.508,5.485L0.508,5.969L0.281,5.969L0.281,6.16L1,6.16L1,5.485ZM0.575,5.49C0.575,5.312 0.591,5.175 0.622,5.081C0.653,4.987 0.697,4.939 0.754,4.939C0.812,4.939 0.856,4.987 0.888,5.081C0.919,5.175 0.934,5.312 0.934,5.49L0.934,5.969L0.575,5.969L0.575,5.49Z" style="fill:url(#_Linear22);fill-rule:nonzero;"/>
            </g>
            <g transform="matrix(32.8823,0,0,-82.4474,1486.32,1733.54)">
                <rect x="0.545" y="6.307" width="0.19" height="0.719" style="fill:url(#_Linear23);"/>
            </g>
            <g transform="matrix(0,-82.4474,-32.8823,0,1812.85,1236.73)">
                <path d="M0.473,7.477L0.473,8.481L0.281,8.697L0.281,8.896L1,8.072L1,7.884L0.281,7.06L0.281,7.261L0.473,7.477ZM0.535,7.547L0.921,7.979L0.535,8.412L0.535,7.547Z" style="fill:url(#_Linear24);fill-rule:nonzero;"/>
            </g>
            <g transform="matrix(0,209.665,47.2857,0,454.507,905.97)">
                <path d="M0.767,9.44C0.767,9.21 0.745,9.095 0.7,9.095C0.685,9.095 0.668,9.104 0.649,9.123C0.63,9.143 0.606,9.17 0.576,9.205C0.545,9.247 0.518,9.278 0.496,9.299C0.474,9.319 0.454,9.33 0.437,9.33C0.392,9.33 0.369,9.241 0.369,9.064C0.369,9.016 0.37,8.968 0.373,8.917L0.75,8.563L0.75,7.924L0.114,8.527L0.094,9.183L0.325,8.966L0.325,9.002C0.325,9.117 0.316,9.223 0.298,9.321C0.28,9.418 0.258,9.494 0.23,9.549C0.203,9.604 0.177,9.631 0.151,9.631C0.12,9.631 0.095,9.59 0.076,9.509C0.056,9.428 0.046,9.306 0.046,9.143C0.046,8.904 0.056,8.694 0.075,8.514C0.094,8.333 0.122,8.194 0.159,8.095C0.196,7.996 0.239,7.946 0.289,7.946C0.314,7.946 0.331,7.957 0.34,7.977C0.35,7.998 0.356,8.008 0.357,8.008C0.357,7.849 0.349,7.73 0.334,7.651C0.319,7.573 0.295,7.534 0.26,7.534C0.217,7.534 0.176,7.611 0.136,7.767C0.095,7.922 0.062,8.121 0.037,8.363C0.012,8.605 0,8.848 0,9.09C0,9.312 0.007,9.498 0.022,9.649C0.037,9.8 0.056,9.912 0.081,9.986C0.105,10.06 0.131,10.097 0.16,10.097C0.191,10.097 0.223,10.054 0.254,9.968C0.285,9.882 0.311,9.766 0.331,9.618C0.338,9.73 0.35,9.809 0.367,9.855C0.384,9.901 0.406,9.924 0.431,9.924C0.45,9.924 0.471,9.913 0.492,9.893C0.514,9.872 0.541,9.842 0.573,9.804C0.594,9.78 0.614,9.758 0.634,9.738C0.654,9.717 0.671,9.707 0.684,9.707C0.699,9.707 0.713,9.722 0.725,9.753C0.737,9.784 0.745,9.826 0.75,9.879C0.761,9.699 0.767,9.553 0.767,9.44Z" style="fill:url(#_Linear25);fill-rule:nonzero;"/>
            </g>
            <g transform="matrix(0,209.665,47.2857,0,667.735,905.97)">
                <path d="M0.756,6.297C0.756,6.078 0.743,5.908 0.717,5.787C0.692,5.666 0.652,5.605 0.597,5.605C0.551,5.605 0.5,5.645 0.445,5.725C0.39,5.805 0.342,5.935 0.301,6.115C0.261,6.295 0.241,6.524 0.241,6.802C0.241,7.127 0.273,7.29 0.337,7.29C0.374,7.29 0.409,7.243 0.44,7.148C0.471,7.054 0.496,6.928 0.515,6.771C0.534,6.615 0.545,6.448 0.548,6.27C0.568,6.264 0.581,6.261 0.588,6.261C0.621,6.261 0.643,6.286 0.654,6.337C0.666,6.387 0.672,6.468 0.672,6.581C0.672,6.74 0.664,6.877 0.647,6.991C0.63,7.105 0.605,7.229 0.571,7.365L0.571,7.516C0.694,7.188 0.756,6.782 0.756,6.297ZM0.5,6.306C0.499,6.415 0.49,6.519 0.474,6.618C0.458,6.717 0.438,6.797 0.413,6.858C0.388,6.918 0.362,6.949 0.335,6.949C0.308,6.949 0.294,6.912 0.294,6.838C0.294,6.731 0.315,6.627 0.357,6.525C0.399,6.423 0.447,6.35 0.5,6.306Z" style="fill:url(#_Linear26);fill-rule:nonzero;"/>
            </g>
            <g transform="matrix(0,209.665,47.2857,0,850.57,905.97)">
                <path d="M0.756,5.099C0.756,4.919 0.745,4.787 0.723,4.703C0.702,4.618 0.675,4.576 0.643,4.576C0.629,4.576 0.613,4.584 0.595,4.598C0.578,4.613 0.561,4.629 0.544,4.645C0.527,4.661 0.517,4.672 0.512,4.678C0.489,4.702 0.466,4.724 0.443,4.745C0.42,4.765 0.402,4.776 0.388,4.776C0.354,4.776 0.337,4.723 0.337,4.616C0.337,4.539 0.346,4.471 0.362,4.412C0.379,4.353 0.402,4.306 0.429,4.27L0.75,3.969L0.75,3.33L0.07,3.973L0.05,4.63L0.302,4.39C0.265,4.538 0.246,4.711 0.246,4.909C0.246,5.059 0.255,5.179 0.274,5.268C0.293,5.357 0.321,5.401 0.359,5.401C0.378,5.401 0.4,5.391 0.423,5.37C0.447,5.349 0.476,5.32 0.51,5.281C0.531,5.258 0.551,5.236 0.57,5.217C0.59,5.198 0.606,5.188 0.617,5.188C0.63,5.188 0.641,5.201 0.648,5.228C0.655,5.255 0.659,5.301 0.659,5.365C0.659,5.454 0.652,5.525 0.637,5.578C0.623,5.632 0.601,5.685 0.571,5.738L0.571,5.924C0.644,5.815 0.693,5.688 0.718,5.545C0.743,5.402 0.756,5.253 0.756,5.099Z" style="fill:url(#_Linear27);fill-rule:nonzero;"/>
            </g>
            <g transform="matrix(0,209.665,47.2857,0,1053.52,905.97)">
                <path d="M0.756,1.978C0.756,1.81 0.743,1.669 0.717,1.557C0.691,1.444 0.65,1.388 0.595,1.388C0.546,1.388 0.494,1.432 0.439,1.519C0.385,1.606 0.339,1.736 0.301,1.909C0.264,2.082 0.245,2.288 0.245,2.528C0.245,2.649 0.25,2.739 0.259,2.798C0.268,2.858 0.281,2.887 0.296,2.887L0.303,2.887L0.25,2.936L0.25,3.574L0.59,3.255C0.6,3.243 0.611,3.237 0.622,3.237C0.635,3.237 0.645,3.251 0.65,3.279C0.656,3.308 0.659,3.354 0.659,3.419C0.659,3.46 0.658,3.493 0.655,3.517C0.692,3.452 0.718,3.39 0.733,3.33C0.748,3.271 0.756,3.186 0.756,3.073C0.756,2.952 0.748,2.854 0.731,2.778C0.715,2.703 0.692,2.656 0.663,2.639C0.725,2.458 0.756,2.238 0.756,1.978ZM0.659,2.266C0.659,2.34 0.651,2.413 0.635,2.486C0.62,2.558 0.598,2.608 0.571,2.634L0.345,2.847C0.336,2.847 0.328,2.832 0.319,2.803C0.311,2.773 0.307,2.727 0.307,2.665C0.307,2.547 0.322,2.441 0.353,2.346C0.384,2.251 0.422,2.178 0.465,2.124C0.509,2.071 0.548,2.045 0.581,2.045C0.614,2.045 0.636,2.066 0.645,2.109C0.654,2.152 0.659,2.204 0.659,2.266Z" style="fill:url(#_Linear28);fill-rule:nonzero;"/>
            </g>
            <g transform="matrix(47.2857,0,0,-209.665,1269.04,990.83)">
                <path d="M0.085,-0.044L0.972,-0.044L0.896,-0.123L0.005,-0.123L0.085,-0.044Z" style="fill:url(#_Linear29);fill-rule:nonzero;"/>
            </g>
            <g transform="matrix(0,209.665,47.2857,0,1603.05,905.97)">
                <path d="M0.07,-3.808C0.089,-4.006 0.117,-4.159 0.154,-4.267C0.191,-4.375 0.236,-4.429 0.289,-4.429C0.314,-4.429 0.331,-4.419 0.34,-4.398C0.35,-4.377 0.356,-4.367 0.357,-4.367C0.357,-4.527 0.349,-4.646 0.334,-4.724C0.319,-4.802 0.295,-4.841 0.26,-4.841C0.217,-4.841 0.176,-4.764 0.136,-4.609C0.095,-4.453 0.062,-4.255 0.037,-4.012C0.012,-3.77 0,-3.527 0,-3.285C0,-3.244 0.001,-3.185 0.002,-3.108L0.3,-3.392L0.3,-2.74L0.002,-2.456L0.002,-1.817L0.75,-2.523L0.75,-3.161L0.374,-2.806L0.374,-3.458L0.75,-3.813L0.75,-4.451L0.07,-3.808Z" style="fill:url(#_Linear30);fill-rule:nonzero;"/>
            </g>
            <g transform="matrix(0,209.665,47.2857,0,1818.8,905.97)">
                <path d="M0.756,-5.875C0.756,-6.093 0.743,-6.263 0.717,-6.385C0.692,-6.506 0.652,-6.566 0.597,-6.566C0.551,-6.566 0.5,-6.526 0.445,-6.447C0.39,-6.367 0.342,-6.237 0.301,-6.056C0.261,-5.876 0.241,-5.647 0.241,-5.369C0.241,-5.044 0.273,-4.881 0.337,-4.881C0.374,-4.881 0.409,-4.929 0.44,-5.023C0.471,-5.118 0.496,-5.243 0.515,-5.4C0.534,-5.557 0.545,-5.724 0.548,-5.901C0.568,-5.907 0.581,-5.91 0.588,-5.91C0.621,-5.91 0.643,-5.885 0.654,-5.835C0.666,-5.784 0.672,-5.703 0.672,-5.591C0.672,-5.431 0.664,-5.295 0.647,-5.181C0.63,-5.067 0.605,-4.942 0.571,-4.806L0.571,-4.655C0.694,-4.983 0.756,-5.39 0.756,-5.875ZM0.5,-5.866C0.499,-5.756 0.49,-5.652 0.474,-5.553C0.458,-5.454 0.438,-5.374 0.413,-5.314C0.388,-5.253 0.362,-5.223 0.335,-5.223C0.308,-5.223 0.294,-5.26 0.294,-5.334C0.294,-5.44 0.315,-5.544 0.357,-5.646C0.399,-5.748 0.447,-5.821 0.5,-5.866Z" style="fill:url(#_Linear31);fill-rule:nonzero;"/>
            </g>
            <g transform="matrix(0,209.665,47.2857,0,1958.01,905.97)">
                <path d="M0.756,-7.311C0.756,-7.453 0.746,-7.568 0.726,-7.655C0.706,-7.742 0.676,-7.786 0.636,-7.786C0.619,-7.786 0.598,-7.774 0.571,-7.75L0.07,-7.276L0.05,-6.619L0.59,-7.129C0.6,-7.141 0.611,-7.147 0.622,-7.147C0.635,-7.147 0.645,-7.133 0.65,-7.105C0.656,-7.077 0.659,-7.03 0.659,-6.965C0.659,-6.879 0.651,-6.8 0.634,-6.726C0.618,-6.652 0.597,-6.599 0.571,-6.566L0.571,-6.38C0.643,-6.489 0.692,-6.63 0.717,-6.801C0.743,-6.973 0.756,-7.143 0.756,-7.311Z" style="fill:url(#_Linear32);fill-rule:nonzero;"/>
            </g>
            <g transform="matrix(0,209.665,47.2857,0,2080.66,905.97)">
                <path d="M0.213,-8.823L0.213,-8.185L0.288,-8.256C0.259,-8.108 0.245,-7.935 0.245,-7.737C0.245,-7.571 0.257,-7.44 0.282,-7.342C0.307,-7.244 0.347,-7.196 0.403,-7.196C0.456,-7.196 0.509,-7.23 0.562,-7.298C0.616,-7.366 0.662,-7.481 0.699,-7.644C0.737,-7.806 0.756,-8.02 0.756,-8.286C0.756,-8.476 0.744,-8.601 0.72,-8.663L0.964,-8.894L1,-9.564L0.213,-8.823ZM0.669,-8.424C0.669,-8.282 0.654,-8.165 0.624,-8.071C0.594,-7.978 0.558,-7.91 0.516,-7.867C0.475,-7.825 0.436,-7.803 0.4,-7.803C0.345,-7.803 0.317,-7.877 0.317,-8.025C0.317,-8.078 0.321,-8.132 0.33,-8.187C0.339,-8.241 0.351,-8.289 0.366,-8.331L0.646,-8.592C0.661,-8.569 0.669,-8.513 0.669,-8.424Z" style="fill:url(#_Linear33);fill-rule:nonzero;"/>
            </g>
        </g>
    </g>
    <defs>
        <linearGradient id="_Linear1" x1="0" y1="0" x2="1" y2="0" gradientUnits="userSpaceOnUse" gradientTransform="matrix(1,0,0,-1,0,-2.5498)"><stop offset="0" style="stop-color:rgb(38,21,19);stop-opacity:1"/><stop offset="0.44" style="stop-color:rgb(8,120,147);stop-opacity:1"/><stop offset="1" style="stop-color:rgb(0,146,180);stop-opacity:1"/></linearGradient>
        <linearGradient id="_Linear2" x1="0" y1="0" x2="1" y2="0" gradientUnits="userSpaceOnUse" gradientTransform="matrix(1,0,0,-1,0,-4.24935)"><stop offset="0" style="stop-color:rgb(38,21,19);stop-opacity:1"/><stop offset="0.44" style="stop-color:rgb(8,120,147);stop-opacity:1"/><stop offset="1" style="stop-color:rgb(0,146,180);stop-opacity:1"/></linearGradient>
        <linearGradient id="_Linear3" x1="0" y1="0" x2="1" y2="0" gradientUnits="userSpaceOnUse" gradientTransform="matrix(0.999998,0.0019787,0.0019787,-0.999998,0.00418385,-4.22888)"><stop offset="0" style="stop-color:rgb(38,21,19);stop-opacity:1"/><stop offset="0.44" style="stop-color:rgb(8,120,147);stop-opacity:1"/><stop offset="1" style="stop-color:rgb(0,146,180);stop-opacity:1"/></linearGradient>
        <linearGradient id="_Linear4" x1="0" y1="0" x2="1" y2="0" gradientUnits="userSpaceOnUse" gradientTransform="matrix(-0.020097,-0.999798,-0.999798,0.020097,-1.67416,-1.64085)"><stop offset="0" style="stop-color:rgb(38,21,19);stop-opacity:1"/><stop offset="0.44" style="stop-color:rgb(8,120,147);stop-opacity:1"/><stop offset="1" style="stop-color:rgb(0,146,180);stop-opacity:1"/></linearGradient>
        <linearGradient id="_Linear5" x1="0" y1="0" x2="1" y2="0" gradientUnits="userSpaceOnUse" gradientTransform="matrix(1,0,0,-1,0,-4.16239)"><stop offset="0" style="stop-color:rgb(38,21,19);stop-opacity:1"/><stop offset="0.44" style="stop-color:rgb(8,120,147);stop-opacity:1"/><stop offset="1" style="stop-color:rgb(0,146,180);stop-opacity:1"/></linearGradient>
        <linearGradient id="_Linear6" x1="0" y1="0" x2="1" y2="0" gradientUnits="userSpaceOnUse" gradientTransform="matrix(1,0,0,-1,0,-4.01165)"><stop offset="0" style="stop-color:rgb(38,21,19);stop-opacity:1"/><stop offset="0.44" style="stop-color:rgb(8,120,147);stop-opacity:1"/><stop offset="1" style="stop-color:rgb(0,146,180);stop-opacity:1"/></linearGradient>
        <linearGradient id="_Linear7" x1="0" y1="0" x2="1" y2="0" gradientUnits="userSpaceOnUse" gradientTransform="matrix(1,0,0,-1,0,-4.06328)"><stop offset="0" style="stop-color:rgb(38,21,19);stop-opacity:1"/><stop offset="0.44" style="stop-color:rgb(8,120,147);stop-opacity:1"/><stop offset="1" style="stop-color:rgb(0,146,180);stop-opacity:1"/></linearGradient>
        <linearGradient id="_Linear8" x1="0" y1="0" x2="1" y2="0" gradientUnits="userSpaceOnUse" gradientTransform="matrix(1,0,0,-1,0,-4.00498)"><stop offset="0" style="stop-color:rgb(38,21,19);stop-opacity:1"/><stop offset="0.44" style="stop-color:rgb(8,120,147);stop-opacity:1"/><stop offset="1" style="stop-color:rgb(0,146,180);stop-opacity:1"/></linearGradient>
        <linearGradient id="_Linear9" x1="0" y1="0" x2="1" y2="0" gradientUnits="userSpaceOnUse" gradientTransform="matrix(1,0,0,-1,0,-4.00938)"><stop offset="0" style="stop-color:rgb(38,21,19);stop-opacity:1"/><stop offset="0.44" style="stop-color:rgb(8,120,147);stop-opacity:1"/><stop offset="1" style="stop-color:rgb(0,146,180);stop-opacity:1"/></linearGradient>
        <linearGradient id="_Linear10" x1="0" y1="0" x2="1" y2="0" gradientUnits="userSpaceOnUse" gradientTransform="matrix(0.999997,0.00249197,0.00249197,-0.999997,0.00475866,-3.81919)"><stop offset="0" style="stop-color:rgb(38,21,19);stop-opacity:1"/><stop offset="0.44" style="stop-color:rgb(8,120,147);stop-opacity:1"/><stop offset="1" style="stop-color:rgb(0,146,180);stop-opacity:1"/></linearGradient>
        <linearGradient id="_Linear11" x1="0" y1="0" x2="1" y2="0" gradientUnits="userSpaceOnUse" gradientTransform="matrix(1,0,0,-1,0,-4.11126)"><stop offset="0" style="stop-color:rgb(38,21,19);stop-opacity:1"/><stop offset="0.44" style="stop-color:rgb(8,120,147);stop-opacity:1"/><stop offset="1" style="stop-color:rgb(0,146,180);stop-opacity:1"/></linearGradient>
        <linearGradient id="_Linear12" x1="0" y1="0" x2="1" y2="0" gradientUnits="userSpaceOnUse" gradientTransform="matrix(1,0,0,-1,0,-3.55157)"><stop offset="0" style="stop-color:rgb(38,21,19);stop-opacity:1"/><stop offset="0.44" style="stop-color:rgb(8,120,147);stop-opacity:1"/><stop offset="1" style="stop-color:rgb(0,146,180);stop-opacity:1"/></linearGradient>
        <linearGradient id="_Linear13" x1="0" y1="0" x2="1" y2="0" gradientUnits="userSpaceOnUse" gradientTransform="matrix(1,0,0,-1,0,-18.0889)"><stop offset="0" style="stop-color:rgb(38,21,19);stop-opacity:1"/><stop offset="0.57" style="stop-color:rgb(12,107,130);stop-opacity:1"/><stop offset="1" style="stop-color:rgb(0,146,180);stop-opacity:1"/></linearGradient>
        <linearGradient id="_Linear14" x1="0" y1="0" x2="1" y2="0" gradientUnits="userSpaceOnUse" gradientTransform="matrix(0,1,1,0,8.57838,-8.57838)"><stop offset="0" style="stop-color:rgb(38,21,19);stop-opacity:1"/><stop offset="0.57" style="stop-color:rgb(12,107,130);stop-opacity:1"/><stop offset="1" style="stop-color:rgb(0,146,180);stop-opacity:1"/></linearGradient>
        <linearGradient id="_Linear15" x1="0" y1="0" x2="1" y2="0" gradientUnits="userSpaceOnUse" gradientTransform="matrix(1,0,0,-1,0,-13.389)"><stop offset="0" style="stop-color:rgb(38,21,19);stop-opacity:1"/><stop offset="0.57" style="stop-color:rgb(12,107,130);stop-opacity:1"/><stop offset="1" style="stop-color:rgb(0,146,180);stop-opacity:1"/></linearGradient>
        <linearGradient id="_Linear16" x1="0" y1="0" x2="1" y2="0" gradientUnits="userSpaceOnUse" gradientTransform="matrix(1,0,0,-1,0,-10.748)"><stop offset="0" style="stop-color:rgb(38,21,19);stop-opacity:1"/><stop offset="0.57" style="stop-color:rgb(12,107,130);stop-opacity:1"/><stop offset="1" style="stop-color:rgb(0,146,180);stop-opacity:1"/></linearGradient>
        <linearGradient id="_Linear17" x1="0" y1="0" x2="1" y2="0" gradientUnits="userSpaceOnUse" gradientTransform="matrix(1,0,0,-1,0,-7.00833)"><stop offset="0" style="stop-color:rgb(38,21,19);stop-opacity:1"/><stop offset="0.57" style="stop-color:rgb(12,107,130);stop-opacity:1"/><stop offset="1" style="stop-color:rgb(0,146,180);stop-opacity:1"/></linearGradient>
        <linearGradient id="_Linear18" x1="0" y1="0" x2="1" y2="0" gradientUnits="userSpaceOnUse" gradientTransform="matrix(1,0,0,-1,0,-3.42281)"><stop offset="0" style="stop-color:rgb(38,21,19);stop-opacity:1"/><stop offset="0.57" style="stop-color:rgb(12,107,130);stop-opacity:1"/><stop offset="1" style="stop-color:rgb(0,146,180);stop-opacity:1"/></linearGradient>
        <linearGradient id="_Linear19" x1="0" y1="0" x2="1" y2="0" gradientUnits="userSpaceOnUse" gradientTransform="matrix(1,0,0,-1,0,-0.084544)"><stop offset="0" style="stop-color:rgb(38,21,19);stop-opacity:1"/><stop offset="0.57" style="stop-color:rgb(12,107,130);stop-opacity:1"/><stop offset="1" style="stop-color:rgb(0,146,180);stop-opacity:1"/></linearGradient>
        <linearGradient id="_Linear20" x1="0" y1="0" x2="1" y2="0" gradientUnits="userSpaceOnUse" gradientTransform="matrix(1,0,0,-1,0,3.52439)"><stop offset="0" style="stop-color:rgb(38,21,19);stop-opacity:1"/><stop offset="0.57" style="stop-color:rgb(12,107,130);stop-opacity:1"/><stop offset="1" style="stop-color:rgb(0,146,180);stop-opacity:1"/></linearGradient>
        <linearGradient id="_Linear21" x1="0" y1="0" x2="1" y2="0" gradientUnits="userSpaceOnUse" gradientTransform="matrix(1,0,0,-1,0,7.06581)"><stop offset="0" style="stop-color:rgb(38,21,19);stop-opacity:1"/><stop offset="0.57" style="stop-color:rgb(12,107,130);stop-opacity:1"/><stop offset="1" style="stop-color:rgb(0,146,180);stop-opacity:1"/></linearGradient>
        <linearGradient id="_Linear22" x1="0" y1="0" x2="1" y2="0" gradientUnits="userSpaceOnUse" gradientTransform="matrix(1,0,0,-1,0,10.9086)"><stop offset="0" style="stop-color:rgb(38,21,19);stop-opacity:1"/><stop offset="0.57" style="stop-color:rgb(12,107,130);stop-opacity:1"/><stop offset="1" style="stop-color:rgb(0,146,180);stop-opacity:1"/></linearGradient>
        <linearGradient id="_Linear23" x1="0" y1="0" x2="1" y2="0" gradientUnits="userSpaceOnUse" gradientTransform="matrix(0,1,1,0,-6.02583,6.02583)"><stop offset="0" style="stop-color:rgb(38,21,19);stop-opacity:1"/><stop offset="0.57" style="stop-color:rgb(12,107,130);stop-opacity:1"/><stop offset="1" style="stop-color:rgb(0,146,180);stop-opacity:1"/></linearGradient>
        <linearGradient id="_Linear24" x1="0" y1="0" x2="1" y2="0" gradientUnits="userSpaceOnUse" gradientTransform="matrix(1,0,0,-1,0,15.956)"><stop offset="0" style="stop-color:rgb(38,21,19);stop-opacity:1"/><stop offset="0.57" style="stop-color:rgb(12,107,130);stop-opacity:1"/><stop offset="1" style="stop-color:rgb(0,146,180);stop-opacity:1"/></linearGradient>
        <linearGradient id="_Linear25" x1="0" y1="0" x2="1" y2="0" gradientUnits="userSpaceOnUse" gradientTransform="matrix(1,0,0,-1,0,17.6306)"><stop offset="0" style="stop-color:rgb(38,21,19);stop-opacity:1"/><stop offset="0.49" style="stop-color:rgb(9,116,141);stop-opacity:1"/><stop offset="1" style="stop-color:rgb(0,146,180);stop-opacity:1"/></linearGradient>
        <linearGradient id="_Linear26" x1="0" y1="0" x2="1" y2="0" gradientUnits="userSpaceOnUse" gradientTransform="matrix(1,0,0,-1,0,13.1212)"><stop offset="0" style="stop-color:rgb(38,21,19);stop-opacity:1"/><stop offset="0.49" style="stop-color:rgb(9,116,141);stop-opacity:1"/><stop offset="1" style="stop-color:rgb(0,146,180);stop-opacity:1"/></linearGradient>
        <linearGradient id="_Linear27" x1="0" y1="0" x2="1" y2="0" gradientUnits="userSpaceOnUse" gradientTransform="matrix(1,0,0,-1,0,9.25459)"><stop offset="0" style="stop-color:rgb(38,21,19);stop-opacity:1"/><stop offset="0.49" style="stop-color:rgb(9,116,141);stop-opacity:1"/><stop offset="1" style="stop-color:rgb(0,146,180);stop-opacity:1"/></linearGradient>
        <linearGradient id="_Linear28" x1="0" y1="0" x2="1" y2="0" gradientUnits="userSpaceOnUse" gradientTransform="matrix(1,0,0,-1,0,4.9626)"><stop offset="0" style="stop-color:rgb(38,21,19);stop-opacity:1"/><stop offset="0.49" style="stop-color:rgb(9,116,141);stop-opacity:1"/><stop offset="1" style="stop-color:rgb(0,146,180);stop-opacity:1"/></linearGradient>
        <linearGradient id="_Linear29" x1="0" y1="0" x2="1" y2="0" gradientUnits="userSpaceOnUse" gradientTransform="matrix(0,-1,-1,-0,0.40474,0.40474)"><stop offset="0" style="stop-color:rgb(38,21,19);stop-opacity:1"/><stop offset="0.49" style="stop-color:rgb(9,116,141);stop-opacity:1"/><stop offset="1" style="stop-color:rgb(0,146,180);stop-opacity:1"/></linearGradient>
        <linearGradient id="_Linear30" x1="0" y1="0" x2="1" y2="0" gradientUnits="userSpaceOnUse" gradientTransform="matrix(1,0,0,-1,0,-6.65888)"><stop offset="0" style="stop-color:rgb(38,21,19);stop-opacity:1"/><stop offset="0.49" style="stop-color:rgb(9,116,141);stop-opacity:1"/><stop offset="1" style="stop-color:rgb(0,146,180);stop-opacity:1"/></linearGradient>
        <linearGradient id="_Linear31" x1="0" y1="0" x2="1" y2="0" gradientUnits="userSpaceOnUse" gradientTransform="matrix(1,0,0,-1,0,-11.2216)"><stop offset="0" style="stop-color:rgb(38,21,19);stop-opacity:1"/><stop offset="0.49" style="stop-color:rgb(9,116,141);stop-opacity:1"/><stop offset="1" style="stop-color:rgb(0,146,180);stop-opacity:1"/></linearGradient>
        <linearGradient id="_Linear32" x1="0" y1="0" x2="1" y2="0" gradientUnits="userSpaceOnUse" gradientTransform="matrix(1,0,0,-1,0,-14.1656)"><stop offset="0" style="stop-color:rgb(38,21,19);stop-opacity:1"/><stop offset="0.49" style="stop-color:rgb(9,116,141);stop-opacity:1"/><stop offset="1" style="stop-color:rgb(0,146,180);stop-opacity:1"/></linearGradient>
        <linearGradient id="_Linear33" x1="0" y1="0" x2="1" y2="0" gradientUnits="userSpaceOnUse" gradientTransform="matrix(1,0,0,-1,0,-16.7594)"><stop offset="0" style="stop-color:rgb(38,21,19);stop-opacity:1"/><stop offset="0.49" style="stop-color:rgb(9,116,141);stop-opacity:1"/><stop offset="1" style="stop-color:rgb(0,146,180);stop-opacity:1"/></linearGradient>
    </defs>
</svg>
